00000000 echo.c
00000000 ulib.c
00000000 printf.c
000003b0 printint
000008b8 digits.0
00000000 umalloc.c
00000b9c freep
00000ba0 base
00000080 strcpy
00000510 printf
000002b0 memmove
0000032b mknod
00000393 get_parent_pid
000001a0 gets
00000363 getpid
000007a0 malloc
00000373 sleep
000002f3 pipe
00000303 write
0000033b fstat
00000313 kill
00000353 chdir
0000031b exec
000002eb wait
000002fb read
00000333 unlink
00000383 poweroff
000002db fork
0000038b calculate_sum_of_digits
00000460 printfloat
0000036b sbrk
0000037b uptime
00000b9c __bss_start
00000140 memset
00000000 main
000000b0 strcmp
0000035b dup
0000039b set_process_parent
00000220 stat
00000b9c _edata
00000ba8 _end
00000343 link
000002e3 exit
00000270 atoi
00000100 strlen
00000323 open
00000160 strchr
0000034b mkdir
0000030b close
00000710 free
