00000000 bio.c
00000000 console.c
8010ff20 cons
8010ff58 panicked
80100410 cgaputc
80109000 end
80100680 printint
80108008 digits.0
8010ff10 make_upper
00000000 exec.c
00000000 file.c
00000000 fs.c
80101890 bfree
80101910 balloc
80101a20 iget
80101b20 bmap
80102490 namex
00000000 ide.c
801027e0 idestart
80112600 idelock
801125e0 havedisk1
801125e4 idequeue
00000000 ioapic.c
00000000 kalloc.c
00000000 kbd.c
8011267c shift.1
80108340 shiftcode
80108240 togglecode
80108220 charcode.0
80109220 normalmap
80109120 shiftmap
80109020 ctlmap
00000000 lapic.c
00000000 log.c
80103300 install_trans
801033a0 write_head
00000000 main.c
80103750 mpmain
80103790 mpenter
00000000 mp.c
801038e0 mpsearch1
00000000 picirq.c
00000000 pipe.c
00000000 proc.c
80103f30 allocproc
8010b000 first.1
80115254 initproc
8010861c states.0
00000000 sleeplock.c
00000000 spinlock.c
00000000 string.c
00000000 syscall.c
801086a0 syscalls
00000000 sysfile.c
801056c0 create
00000000 sysproc.c
00000000 trap.c
00000000 uart.c
80106910 uartgetc
80115ac0 uart
00000000 vm.c
80107530 deallocuvm.part.0
801075e0 mappages
8010b420 kmap
80107f1a uva2ka.cold
80107f21 copyout.cold
80100290 consoleread
80107483 vector242
80106eda vector119
8010000c entry
80106dba vector87
80106db1 vector86
801053f0 safestrcpy
80105a00 sys_close
801074ef vector251
80106dde vector91
80106bd4 vector33
801070c3 vector162
80104a10 yield
801126a0 log
80112640 kmem
80107327 vector213
80106e77 vector108
80106940 uartinit
80106c2e vector43
80103030 lapiceoi
801070e7 vector165
801071d7 vector185
80102af0 ioapicinit
80106eb6 vector115
801016b0 fileread
80106ef5 vector122
80106390 sys_sbrk
80112780 ioapicid
8010707b vector156
801074a7 vector245
80112634 ioapic
80107207 vector189
80106af8 vector7
801009c0 upArrow
80106cd0 vector61
80106b83 vector24
80106e92 vector111
8010728b vector200
801064f0 sys_calculate_sum_of_digits
80106d06 vector67
80106fa3 vector138
801044c0 get_MHRRN
80106d45 vector74
801046d0 sched
801052d0 memmove
80106cac vector57
80105650 syscall
80107333 vector214
80106e26 vector99
801040f0 cpuid
80102280 writei
80106fc7 vector141
801062f0 sys_fork
8010b520 bcache
8010713b vector172
80107477 vector241
80104f80 getcallerpcs
80105f60 sys_mkdir
80107507 vector253
80106ad4 vector3
80104d50 get_parent_pid
80106acb vector2
801023b0 namecmp
801064c0 sys_poweroff
801073cf vector227
80107303 vector210
801055d0 argstr
801073ab vector224
80106c1c vector41
80100730 cprintf
80101530 filedup
801027a0 namei
80106b68 vector21
80100040 binit
80107177 vector177
80106ed1 vector118
80106d21 vector70
80106d18 vector69
80107447 vector237
80106ceb vector64
80106b9e vector27
80106f5b vector132
801071e3 vector186
801058e0 sys_read
80107357 vector217
80105470 fetchint
80107be0 setupkvm
80105330 memcpy
80107b60 freevm
80106ac2 vector1
8010ff0c edited_index
80107183 vector178
80106c01 vector38
80102be0 kfree
80107453 vector238
80104080 mycpu
80101f90 iput
80106f67 vector133
80106d3c vector73
80106feb vector144
801009a0 swap
80107513 vector254
80101bf0 readsb
8010b004 nextpid
80106e38 vector101
8010730f vector211
80103960 mpinit
80107153 vector174
8010748f vector243
801014a0 fileinit
80104f60 initlock
80106f2b vector128
80107e50 copyout
80106d84 vector81
80104a60 sleep
80103050 microdelay
80106b26 vector13
80106c76 vector51
80106b3d vector16
8010fe80 input
8010746b vector240
80106c91 vector54
80106b56 vector19
80106de7 vector92
8010749b vector244
80102150 stati
80106fbb vector140
80106330 sys_kill
80106c40 vector45
80106d72 vector79
80103ca0 pipeclose
801073e7 vector229
80107093 vector158
80105a70 sys_fstat
801005f0 consolewrite
80106c0a vector39
8010710b vector168
80103510 end_op
80106be6 vector35
80106ea4 vector113
80102c80 freerange
80106f10 vector125
80107a00 allocuvm
801065bf trapret
8010734b vector216
80106ce2 vector63
80106b95 vector26
80107237 vector193
80102f10 lapicinit
8010725b vector196
801072f7 vector209
80106add vector4
80107123 vector170
80115ad0 stack
80106f8b vector136
80106b11 vector10
801072d3 vector206
80101f40 iunlock
801063e0 sys_sleep
8010751f vector255
801071a7 vector181
80106cbe vector59
80106da8 vector85
80106d9f vector84
801071bf vector183
8010709f vector159
8010731b vector212
80105ae0 sys_link
80106c52 vector47
801073db vector228
80106c25 vector42
80106ead vector114
80107e00 uva2ka
8010715f vector175
80106fdf vector143
801014c0 filealloc
80104b20 wakeup
80106f43 vector130
801074b3 vector246
80106b08 vector9
80106fd3 vector142
80106e2f vector100
80107297 vector201
80107c80 clearpteu
80104110 myproc
801065d0 tvinit
80106cc7 vector60
80106b7a vector23
80101e30 idup
8010743b vector236
80102ef0 kbdintr
80105e20 sys_open
801073ff vector231
80106cfd vector66
80106bb0 vector29
80102180 readi
80106f7f vector135
80100ac0 consoleintr
80104b90 kill
80106d60 vector77
80101ce0 ialloc
8010719b vector180
80115ac4 kpgdir
801072eb vector208
80103100 cmostime
80106aa0 uartintr
80106e1d vector98
80106e14 vector97
80104470 proc_with_lcfs
8010716b vector176
80104520 proc_with_MHRRN
80107243 vector194
80106bcb vector32
80116ad0 end
80101870 fileptr
8010727f vector199
80106f4f vector131
801074fb vector252
80101750 filewrite
80106ab9 vector0
80105510 argint
80101140 exec
80106ff7 vector145
80105970 sys_write
801050f0 release
801054b0 fetchstr
80106e6e vector107
80106c13 vector40
801048c0 wait
80106e41 vector102
8010a000 entrypgdir
0010000c _start
80106ca3 vector56
80106d0f vector68
80106aef vector6
8010b48c _binary_initcode_end
80100000 multiboot_header
80106f37 vector129
80104630 scheduler
801023d0 dirlookup
80107267 vector197
80101580 fileclose
801034a0 begin_op
8010704b vector152
80107c60 kvmalloc
801073f3 vector230
80105340 strncmp
80106bf8 vector37
801072c7 vector205
801070b7 vector161
80115280 tickslock
80103d40 pipewrite
80105390 strncpy
80106d2a vector71
80107cd0 copyuvm
8010ff60 ftable
801070ab vector160
80105560 argptr
8010733f vector215
80107087 vector157
80105860 sys_dup
80106e9b vector112
80100390 panic
80104010 forkret
801071b3 vector182
80106b1f vector12
80105280 memcmp
80102e10 kbdgetc
80106e80 vector109
80106b5f vector20
801042c0 fork
80106c88 vector53
80106b4d vector18
0000008a _binary_entryother_size
801127a0 cpus
80104ec0 releasesleep
80104d00 calculate_sum_of_digits
80106e02 vector95
801050a0 holding
801125b4 sb
80105160 acquire
801073c3 vector226
801027c0 nameiparent
80106c64 vector49
80106c37 vector44
80112680 lapic
80106d69 vector78
801065a7 alltraps
80107147 vector173
80106ec8 vector117
80106d8d vector82
80107393 vector222
80106b01 vector8
80107027 vector149
80101da0 iupdate
80109000 data
80105230 memset
8010740b vector232
801037b0 main
80107760 switchkvm
80106e65 vector106
8010737b vector220
80106dd5 vector90
801070cf vector163
80107423 vector234
80103680 log_write
80104e60 acquiresleep
80105c30 sys_unlink
80106cd9 vector62
80106b8c vector25
80107273 vector198
80106ee3 vector120
8010b48c _binary_entryother_start
80102d30 kinit1
80106c6d vector50
80106b34 vector15
801043f0 proc_with_round_robin
8010703f vector151
80106d96 vector83
80106dcc vector89
80106dc3 vector88
80106680 trap
80106490 sys_uptime
8010718f vector179
80106bdd vector34
80106c49 vector46
80106f73 vector134
8010739f vector223
801152c0 idt
80106570 sys_set_process_parent
80107363 vector218
80104060 pinit
80106530 sys_get_parent_pid
80107b30 deallocuvm
801073b7 vector225
80103010 lapicid
801071ef vector187
80104240 growproc
80104f00 holdingsleep
80112784 ncpu
80106bb9 vector30
80104140 userinit
801000d0 bread
80106f22 vector127
80103e40 piperead
80115260 ticks
8010722b vector192
801070f3 vector166
801010f0 consoleinit
80106d57 vector76
80106d4e vector75
80104db0 set_process_parent
80102950 ideintr
8010724f vector195
80107033 vector150
80106cb5 vector58
801074cb vector248
80106efe vector123
80106e0b vector96
80106bc2 vector31
801072af vector203
80106faf vector139
80107057 vector153
801070db vector164
80104c20 procdump
80106eec vector121
80106a40 uartputc
80106ae6 vector5
801070ff vector167
8010706f vector155
801074d7 vector249
801001f0 brelse
801074e3 vector250
80106f07 vector124
80106e89 vector110
801072bb vector204
80101e60 ilock
80106120 sys_exec
80106f97 vector137
8010b460 _binary_initcode_start
80105453 swtch
801074bf vector247
80106b71 vector22
801072a3 vector202
801076d0 seginit
801020f0 iunlockput
80106d33 vector72
80106c9a vector55
80106f19 vector126
80106cf4 vector65
80106ba7 vector28
8010b516 _binary_entryother_end
80107117 vector169
801001b0 bwrite
80107417 vector233
80106650 idtinit
80104790 exit
80106320 sys_wait
80106300 sys_exit
801026e0 dirlink
0000002c _binary_initcode_size
8010700f vector147
80104e20 initsleeplock
801028c0 ideinit
80107910 loaduvm
80106e53 vector104
80106ebf vector116
80112d20 ptable
80102ba0 ioapicenable
80105040 popcli
8010b008 vectors
80106c7f vector52
80106b46 vector17
801071cb vector184
80105430 strlen
80106210 sys_pipe
80101c30 iinit
80103b70 picinit
801072df vector207
80107890 inituvm
80107213 vector190
8010745f vector239
80106df9 vector94
80106df0 vector93
80103400 initlog
801071fb vector188
80106c5b vector48
801029f0 iderw
8010736f vector219
8010701b vector148
80107387 vector221
80102da0 kalloc
80110900 devsw
80106370 sys_getpid
80106d7b vector80
8010712f vector171
80107063 vector154
80106bef vector36
80103b90 pipealloc
8010742f vector235
80106e5c vector105
80106070 sys_chdir
80110960 icache
80107003 vector146
8010721f vector191
80106e4a vector103
80105fd0 sys_mknod
80103060 lapicstartap
80107780 switchuvm
80104ff0 pushcli
80102cd0 kinit2
80106b18 vector11
80106b2d vector14
80101660 filestat
